{
	"_embedded": {
		"blocked-keywords": [
			{
				"createDate": "2019-01-02T17:09:07.666Z",
				"id": "351238757269547437",
				"keyword": "1500s"
			},
			{
				"createDate": "2019-01-02T17:09:07.666Z",
				"id": "351238757269547433",
				"keyword": "ajax"
			}
		]
	},
	"page": {
		"number": 0,
		"size": 2,
		"totalElements": 12,
		"totalPages": 6
	}
}