{
	"_embedded": {
		"blocked-keywords": [
			{
				"createDate": "2019-01-10T15:10:07.666Z",
				"id": "351238757269547426",
				"keyword": "community"
			},
			{
				"createDate": "2019-02-25T16:09:07.666Z",
				"id": "351238757269547427",
				"keyword": "portal"
			}
		]
	},
	"page": {
		"number": 1,
		"size": 2,
		"totalElements": 12,
		"totalPages": 6
	}
}