{
	"_embedded": {
		"blocked-keywords": [
			{
				"createDate": "2019-03-12T16:11:07.666Z",
				"id": "351238757269547430",
				"keyword": "web platform"
			},
			{
				"createDate": "2019-03-11T17:10:00.666Z",
				"id": "351238757269547431",
				"keyword": "website"
			}
		]
	},
	"page": {
		"number": 0,
		"size": 2,
		"totalElements": 12,
		"totalPages": 6
	}
}